{
    "data": {
      "curPage": 1,
      "datas": [
        {
          "apkLink": "",
          "audit": 1,
          "author": "code小生",
          "canEdit": false,
          "chapterId": 414,
          "chapterName": "code小生",
          "collect": false,
          "courseId": 13,
          "desc": "",
          "descMd": "",
          "envelopePic": "",
          "fresh": false,
          "id": 12853,
          "link": "https://mp.weixin.qq.com/s/cATfEH6FFN-NDG_y0keVQQ",
          "niceDate": "1天前",
          "niceShareDate": "22小时前",
          "origin": "",
          "prefix": "",
          "projectLink": "",
          "publishTime": 1586707200000,
          "selfVisible": 0,
          "shareDate": 1586744780000,
          "shareUser": "",
          "superChapterId": 408,
          "superChapterName": "公众号",
          "tags": [
            {
              "name": "公众号",
              "url": "/wxarticle/list/414/1"
            }
          ],
          "title": "<em class='highlight'>Flutter</em> 开发小结 | Tips",
          "type": 0,
          "userId": -1,
          "visible": 1,
          "zan": 0
        },
        {
          "apkLink": "",
          "audit": 1,
          "author": "",
          "canEdit": false,
          "chapterId": 502,
          "chapterName": "自助",
          "collect": false,
          "courseId": 13,
          "desc": "",
          "descMd": "",
          "envelopePic": "",
          "fresh": false,
          "id": 12777,
          "link": "https://juejin.im/post/5e71bafb6fb9a07c994bfdf3",
          "niceDate": "2020-04-07 18:49",
          "niceShareDate": "2020-04-07 18:48",
          "origin": "",
          "prefix": "",
          "projectLink": "",
          "publishTime": 1586256593000,
          "selfVisible": 0,
          "shareDate": 1586256490000,
          "shareUser": "星星y",
          "superChapterId": 494,
          "superChapterName": "广场Tab",
          "tags": [],
          "title": "<em class='highlight'>Flutter</em>实现一个较好看的计算器",
          "type": 0,
          "userId": 15603,
          "visible": 1,
          "zan": 0
        },
        {
          "apkLink": "",
          "audit": 1,
          "author": "",
          "canEdit": false,
          "chapterId": 502,
          "chapterName": "自助",
          "collect": false,
          "courseId": 13,
          "desc": "",
          "descMd": "",
          "envelopePic": "",
          "fresh": false,
          "id": 12719,
          "link": "https://blog.csdn.net/haojiagou/article/details/105265863",
          "niceDate": "2020-04-02 12:23",
          "niceShareDate": "2020-04-02 12:23",
          "origin": "",
          "prefix": "",
          "projectLink": "",
          "publishTime": 1585801380000,
          "selfVisible": 0,
          "shareDate": 1585801380000,
          "shareUser": "Android_Jiang",
          "superChapterId": 494,
          "superChapterName": "广场Tab",
          "tags": [],
          "title": "历时三天，完成了<em class='highlight'>Flutter</em>版本的玩安卓",
          "type": 0,
          "userId": 56200,
          "visible": 1,
          "zan": 0
        },
        {
          "apkLink": "",
          "audit": 1,
          "author": "code小生",
          "canEdit": false,
          "chapterId": 414,
          "chapterName": "code小生",
          "collect": false,
          "courseId": 13,
          "desc": "",
          "descMd": "",
          "envelopePic": "",
          "fresh": false,
          "id": 12846,
          "link": "https://mp.weixin.qq.com/s/YOgBWQ8-eNri528j_OY-Sw",
          "niceDate": "2020-04-02 00:00",
          "niceShareDate": "22小时前",
          "origin": "",
          "prefix": "",
          "projectLink": "",
          "publishTime": 1585756800000,
          "selfVisible": 0,
          "shareDate": 1586744583000,
          "shareUser": "",
          "superChapterId": 408,
          "superChapterName": "公众号",
          "tags": [
            {
              "name": "公众号",
              "url": "/wxarticle/list/414/1"
            }
          ],
          "title": "<em class='highlight'>Flutter</em> 添加到现有项目",
          "type": 0,
          "userId": -1,
          "visible": 1,
          "zan": 0
        },
        {
          "apkLink": "",
          "audit": 1,
          "author": "",
          "canEdit": false,
          "chapterId": 502,
          "chapterName": "自助",
          "collect": false,
          "courseId": 13,
          "desc": "",
          "descMd": "",
          "envelopePic": "",
          "fresh": false,
          "id": 12710,
          "link": "https://weilu.blog.csdn.net/article/details/105237677",
          "niceDate": "2020-04-01 09:02",
          "niceShareDate": "2020-04-01 09:02",
          "origin": "",
          "prefix": "",
          "projectLink": "",
          "publishTime": 1585702979000,
          "selfVisible": 0,
          "shareDate": 1585702979000,
          "shareUser": "唯鹿",
          "superChapterId": 494,
          "superChapterName": "广场Tab",
          "tags": [],
          "title": "玩玩<em class='highlight'>Flutter</em>的拖拽&mdash;&mdash;实现一款万能遥控器",
          "type": 0,
          "userId": 2657,
          "visible": 1,
          "zan": 0
        },
        {
          "apkLink": "",
          "audit": 1,
          "author": "",
          "canEdit": false,
          "chapterId": 375,
          "chapterName": "Flutter",
          "collect": false,
          "courseId": 13,
          "desc": "",
          "descMd": "",
          "envelopePic": "",
          "fresh": false,
          "id": 12694,
          "link": "https://juejin.im/post/5e7f5be55188257396515dbc",
          "niceDate": "2020-03-31 23:41",
          "niceShareDate": "2020-03-31 23:23",
          "origin": "",
          "prefix": "",
          "projectLink": "",
          "publishTime": 1585669287000,
          "selfVisible": 0,
          "shareDate": 1585668197000,
          "shareUser": "鸿洋",
          "superChapterId": 375,
          "superChapterName": "跨平台",
          "tags": [],
          "title": "【<em class='highlight'>Flutter</em>脱发录】也来实现一下灭霸效果",
          "type": 0,
          "userId": 2,
          "visible": 1,
          "zan": 0
        },
        {
          "apkLink": "",
          "audit": 1,
          "author": "",
          "canEdit": false,
          "chapterId": 494,
          "chapterName": "广场",
          "collect": false,
          "courseId": 13,
          "desc": "",
          "descMd": "",
          "envelopePic": "",
          "fresh": false,
          "id": 12690,
          "link": "https://juejin.im/post/5e81e37f6fb9a03c7e200370",
          "niceDate": "2020-03-31 22:22",
          "niceShareDate": "2020-03-31 22:22",
          "origin": "",
          "prefix": "",
          "projectLink": "",
          "publishTime": 1585664540000,
          "selfVisible": 0,
          "shareDate": 1585664540000,
          "shareUser": "鸿洋",
          "superChapterId": 494,
          "superChapterName": "广场Tab",
          "tags": [],
          "title": " 字节跳动为什么选用<em class='highlight'>Flutter</em>：并非跨平台终极之选，但它可能是不一样的未来 ",
          "type": 0,
          "userId": 2,
          "visible": 0,
          "zan": 0
        },
        {
          "apkLink": "",
          "audit": 1,
          "author": "",
          "canEdit": false,
          "chapterId": 494,
          "chapterName": "广场",
          "collect": false,
          "courseId": 13,
          "desc": "",
          "descMd": "",
          "envelopePic": "",
          "fresh": false,
          "id": 10151,
          "link": "https://fucknmb.com/2019/10/20/%E8%8E%B7%E5%8F%96%E5%B9%B6%E8%BF%98%E5%8E%9FFlutter-Engine-Crash%E5%A0%86%E6%A0%88/",
          "niceDate": "2020-03-28 11:47",
          "niceShareDate": "2019-11-08 09:13",
          "origin": "",
          "prefix": "",
          "projectLink": "",
          "publishTime": 1585367227000,
          "selfVisible": 0,
          "shareDate": 1573175629000,
          "shareUser": "深红骑士",
          "superChapterId": 494,
          "superChapterName": "广场Tab",
          "tags": [],
          "title": "获取并还原 <em class='highlight'>Flutter</em> Engine Crash 堆栈",
          "type": 0,
          "userId": 29303,
          "visible": 0,
          "zan": 0
        },
        {
          "apkLink": "",
          "audit": 1,
          "author": "",
          "canEdit": false,
          "chapterId": 494,
          "chapterName": "广场",
          "collect": false,
          "courseId": 13,
          "desc": "",
          "descMd": "",
          "envelopePic": "",
          "fresh": false,
          "id": 11546,
          "link": "http://lionoggo.com/2019/02/09/%E6%B7%B1%E5%85%A5Flutter%E6%8A%80%E6%9C%AF%E5%86%85%E5%B9%95_Platform%20Channel%E5%8E%9F%E7%90%86/?from=timeline&amp;isappinstalled=0#Platform-Channel%E7%AE%80%E4%BB%8B",
          "niceDate": "2020-03-28 11:45",
          "niceShareDate": "2020-01-17 17:27",
          "origin": "",
          "prefix": "",
          "projectLink": "",
          "publishTime": 1585367129000,
          "selfVisible": 0,
          "shareDate": 1579253243000,
          "shareUser": "亚特兰蒂斯基",
          "superChapterId": 494,
          "superChapterName": "广场Tab",
          "tags": [],
          "title": "深入<em class='highlight'>Flutter</em>技术内幕:Platform Channel设计与实现(一)",
          "type": 0,
          "userId": 7541,
          "visible": 0,
          "zan": 0
        },
        {
          "apkLink": "",
          "audit": 1,
          "author": "code小生",
          "canEdit": false,
          "chapterId": 414,
          "chapterName": "code小生",
          "collect": false,
          "courseId": 13,
          "desc": "",
          "descMd": "",
          "envelopePic": "",
          "fresh": false,
          "id": 12633,
          "link": "https://mp.weixin.qq.com/s/MgVXVuP-hQk8oglUkVlDow",
          "niceDate": "2020-03-23 00:00",
          "niceShareDate": "2020-03-27 13:18",
          "origin": "",
          "prefix": "",
          "projectLink": "",
          "publishTime": 1584892800000,
          "selfVisible": 0,
          "shareDate": 1585286317000,
          "shareUser": "",
          "superChapterId": 408,
          "superChapterName": "公众号",
          "tags": [
            {
              "name": "公众号",
              "url": "/wxarticle/list/414/1"
            }
          ],
          "title": "<em class='highlight'>Flutter</em> Platform View：在 <em class='highlight'>Flutter</em> 中使用Android、iOS的原生 View",
          "type": 0,
          "userId": -1,
          "visible": 1,
          "zan": 0
        },
        {
          "apkLink": "",
          "audit": 1,
          "author": "",
          "canEdit": false,
          "chapterId": 494,
          "chapterName": "广场",
          "collect": false,
          "courseId": 13,
          "desc": "",
          "descMd": "",
          "envelopePic": "",
          "fresh": false,
          "id": 12514,
          "link": "https://blog.csdn.net/qq_39424143/article/details/105018979",
          "niceDate": "2020-03-22 09:28",
          "niceShareDate": "2020-03-22 09:28",
          "origin": "",
          "prefix": "",
          "projectLink": "",
          "publishTime": 1584840531000,
          "selfVisible": 0,
          "shareDate": 1584840531000,
          "shareUser": "wjxbless",
          "superChapterId": 494,
          "superChapterName": "广场Tab",
          "tags": [],
          "title": "<em class='highlight'>Flutter</em>--线程模型",
          "type": 0,
          "userId": 29633,
          "visible": 0,
          "zan": 0
        },
        {
          "apkLink": "",
          "audit": 1,
          "author": "",
          "canEdit": false,
          "chapterId": 494,
          "chapterName": "广场",
          "collect": false,
          "courseId": 13,
          "desc": "",
          "descMd": "",
          "envelopePic": "",
          "fresh": false,
          "id": 12485,
          "link": "https://blog.csdn.net/qq_39424143/article/details/104801132",
          "niceDate": "2020-03-19 19:15",
          "niceShareDate": "2020-03-19 19:15",
          "origin": "",
          "prefix": "",
          "projectLink": "",
          "publishTime": 1584616546000,
          "selfVisible": 0,
          "shareDate": 1584616546000,
          "shareUser": "wjxbless",
          "superChapterId": 494,
          "superChapterName": "广场Tab",
          "tags": [],
          "title": "<em class='highlight'>Flutter</em>状态管理机制",
          "type": 0,
          "userId": 29633,
          "visible": 0,
          "zan": 0
        },
        {
          "apkLink": "",
          "audit": 1,
          "author": "鸿洋",
          "canEdit": false,
          "chapterId": 408,
          "chapterName": "鸿洋",
          "collect": false,
          "courseId": 13,
          "desc": "",
          "descMd": "",
          "envelopePic": "",
          "fresh": false,
          "id": 12620,
          "link": "https://mp.weixin.qq.com/s/uvyx4LwHaMOYQw9WYBvpvg",
          "niceDate": "2020-03-19 00:00",
          "niceShareDate": "2020-03-27 13:12",
          "origin": "",
          "prefix": "",
          "projectLink": "",
          "publishTime": 1584547200000,
          "selfVisible": 0,
          "shareDate": 1585285967000,
          "shareUser": "",
          "superChapterId": 408,
          "superChapterName": "公众号",
          "tags": [
            {
              "name": "公众号",
              "url": "/wxarticle/list/408/1"
            }
          ],
          "title": "Google 的 <em class='highlight'>Flutter</em> Clock 大赛优秀项目推荐",
          "type": 0,
          "userId": -1,
          "visible": 1,
          "zan": 0
        },
        {
          "apkLink": "",
          "audit": 1,
          "author": "",
          "canEdit": false,
          "chapterId": 494,
          "chapterName": "广场",
          "collect": false,
          "courseId": 13,
          "desc": "",
          "descMd": "",
          "envelopePic": "",
          "fresh": false,
          "id": 12463,
          "link": "https://juejin.im/post/5e6f23eef265da574f355950",
          "niceDate": "2020-03-18 08:36",
          "niceShareDate": "2020-03-18 08:36",
          "origin": "",
          "prefix": "",
          "projectLink": "",
          "publishTime": 1584491817000,
          "selfVisible": 0,
          "shareDate": 1584491817000,
          "shareUser": "轻风白宇",
          "superChapterId": 494,
          "superChapterName": "广场Tab",
          "tags": [],
          "title": "FIDL：<em class='highlight'>Flutter</em>与原生通讯的新姿势，不局限于基础数据类型",
          "type": 0,
          "userId": 29185,
          "visible": 0,
          "zan": 0
        },
        {
          "apkLink": "",
          "audit": 1,
          "author": "",
          "canEdit": false,
          "chapterId": 494,
          "chapterName": "广场",
          "collect": false,
          "courseId": 13,
          "desc": "",
          "descMd": "",
          "envelopePic": "",
          "fresh": false,
          "id": 12443,
          "link": "https://juejin.im/post/5b2b4c36f265da59b243cac9",
          "niceDate": "2020-03-17 10:34",
          "niceShareDate": "2020-03-17 10:34",
          "origin": "",
          "prefix": "",
          "projectLink": "",
          "publishTime": 1584412447000,
          "selfVisible": 0,
          "shareDate": 1584412447000,
          "shareUser": "wangzhengyi",
          "superChapterId": 494,
          "superChapterName": "广场Tab",
          "tags": [],
          "title": "<em class='highlight'>flutter</em>-dart 类的构造函数",
          "type": 0,
          "userId": 38889,
          "visible": 0,
          "zan": 0
        },
        {
          "apkLink": "",
          "audit": 1,
          "author": "",
          "canEdit": false,
          "chapterId": 494,
          "chapterName": "广场",
          "collect": false,
          "courseId": 13,
          "desc": "",
          "descMd": "",
          "envelopePic": "",
          "fresh": false,
          "id": 12440,
          "link": "https://www.jianshu.com/p/ce05ad0bdb1f",
          "niceDate": "2020-03-17 07:44",
          "niceShareDate": "2020-03-17 07:44",
          "origin": "",
          "prefix": "",
          "projectLink": "",
          "publishTime": 1584402295000,
          "selfVisible": 0,
          "shareDate": 1584402295000,
          "shareUser": "深红骑士",
          "superChapterId": 494,
          "superChapterName": "广场Tab",
          "tags": [],
          "title": "<em class='highlight'>Flutter</em> 之数据共享 InheritedWidget",
          "type": 0,
          "userId": 29303,
          "visible": 0,
          "zan": 0
        },
        {
          "apkLink": "",
          "audit": 1,
          "author": "",
          "canEdit": false,
          "chapterId": 494,
          "chapterName": "广场",
          "collect": false,
          "courseId": 13,
          "desc": "",
          "descMd": "",
          "envelopePic": "",
          "fresh": false,
          "id": 12429,
          "link": "https://mp.weixin.qq.com/s/iuE96YQh3ZlPRLcHXfXWuQ",
          "niceDate": "2020-03-16 08:27",
          "niceShareDate": "2020-03-16 08:27",
          "origin": "",
          "prefix": "",
          "projectLink": "",
          "publishTime": 1584318429000,
          "selfVisible": 0,
          "shareDate": 1584318429000,
          "shareUser": "轻风白宇",
          "superChapterId": 494,
          "superChapterName": "广场Tab",
          "tags": [],
          "title": "不用掉一根头发！用 <em class='highlight'>Flutter</em> + Dart 快速构建一款绝美移动 App",
          "type": 0,
          "userId": 29185,
          "visible": 0,
          "zan": 0
        },
        {
          "apkLink": "",
          "audit": 1,
          "author": "Android群英传",
          "canEdit": false,
          "chapterId": 413,
          "chapterName": "Android群英传",
          "collect": false,
          "courseId": 13,
          "desc": "",
          "descMd": "",
          "envelopePic": "",
          "fresh": false,
          "id": 12648,
          "link": "https://mp.weixin.qq.com/s/ONET72PxyaVJ26ALwHJIEw",
          "niceDate": "2020-03-16 00:00",
          "niceShareDate": "2020-03-27 13:25",
          "origin": "",
          "prefix": "",
          "projectLink": "",
          "publishTime": 1584288000000,
          "selfVisible": 0,
          "shareDate": 1585286700000,
          "shareUser": "",
          "superChapterId": 408,
          "superChapterName": "公众号",
          "tags": [
            {
              "name": "公众号",
              "url": "/wxarticle/list/413/1"
            }
          ],
          "title": "那些初学者实践 <em class='highlight'>Flutter</em> 最常出现的错误",
          "type": 0,
          "userId": -1,
          "visible": 1,
          "zan": 0
        },
        {
          "apkLink": "",
          "audit": 1,
          "author": "郭霖",
          "canEdit": false,
          "chapterId": 409,
          "chapterName": "郭霖",
          "collect": false,
          "courseId": 13,
          "desc": "",
          "descMd": "",
          "envelopePic": "",
          "fresh": false,
          "id": 12640,
          "link": "https://mp.weixin.qq.com/s/i_x6UdWqM2O-nPqV4uzHpg",
          "niceDate": "2020-03-13 00:00",
          "niceShareDate": "2020-03-27 13:21",
          "origin": "",
          "prefix": "",
          "projectLink": "",
          "publishTime": 1584028800000,
          "selfVisible": 0,
          "shareDate": 1585286491000,
          "shareUser": "",
          "superChapterId": 408,
          "superChapterName": "公众号",
          "tags": [
            {
              "name": "公众号",
              "url": "/wxarticle/list/409/1"
            }
          ],
          "title": "写一个<em class='highlight'>Flutter</em>手势追踪插件",
          "type": 0,
          "userId": -1,
          "visible": 1,
          "zan": 0
        },
        {
          "apkLink": "",
          "audit": 1,
          "author": "鸿洋",
          "canEdit": false,
          "chapterId": 408,
          "chapterName": "鸿洋",
          "collect": false,
          "courseId": 13,
          "desc": "",
          "descMd": "",
          "envelopePic": "",
          "fresh": false,
          "id": 12357,
          "link": "https://mp.weixin.qq.com/s/4tMR7_sDIthzm0BXtICh-w",
          "niceDate": "2020-03-11 00:00",
          "niceShareDate": "2020-03-12 14:32",
          "origin": "",
          "prefix": "",
          "projectLink": "",
          "publishTime": 1583856000000,
          "selfVisible": 0,
          "shareDate": 1583994775000,
          "shareUser": "",
          "superChapterId": 408,
          "superChapterName": "公众号",
          "tags": [
            {
              "name": "公众号",
              "url": "/wxarticle/list/408/1"
            }
          ],
          "title": "Google Fuchsia 进入测试阶段，对 <em class='highlight'>Flutter</em> 有啥影响？",
          "type": 0,
          "userId": -1,
          "visible": 1,
          "zan": 0
        }
      ],
      "offset": 0,
      "over": false,
      "pageCount": 15,
      "size": 20,
      "total": 290
    },
    "errorCode": 0,
    "errorMsg": ""
  }